R para no programadores
…
---

``` r
datos_odonto
```

```
## # A tibble: 34 × 36
##      ind pop   sex   massa_g crc_mm gastropoda_n gastropoda_v araneae_n
##    <dbl> <chr> <chr>   <dbl>  <dbl>        <dbl>        <dbl>     <dbl>
##  1     1 A     M         7.8     37            0            0         0
##  2     2 A     M        11       38            0            0         0
##  3     3 A     F        12.3     45            0            0         0
##  4     4 A     M        16.2     48            0            0         0
##  5     5 A     M        14.5     44            0            0         0
##  6     6 A     F        23       55            0            0         0
##  7     7 A     M        11.6     44            0            0         0
##  8     8 A     M        12.7     45            0            0         1
##  9     9 A     M        12.1     43            0            0         0
## 10    10 A     M        14.6     44            0            0         0
## # ℹ 24 more rows
## # ℹ 28 more variables: araneae_v <dbl>, coleoptera_n <dbl>, coleoptera_v <dbl>,
## #   hymenoptera_n <dbl>, hymenoptera_v <dbl>, orthoptera_n <dbl>,
## #   orthoptera_v <dbl>, lepidoptera_larva_n <dbl>, lepidoptera_larva_v <dbl>,
## #   isopoda_n <dbl>, isopoda_v <dbl>, chilopoda_n <dbl>, chilopoda_v <dbl>,
## #   diplopoda_n <dbl>, diplopoda_v <dbl>, lepidoptera_n <dbl>,
## #   lepidoptera_v <dbl>, anelida_n <dbl>, anelida_v <dbl>, …
```
…
